[2018-01-11 16:41:22.361718] [info] ----------------------------------------------------------2018-01-11 16:41
    current_url: '//wip.timevn.com/wp-base/'
    user_id: 'Unknown'
    user_username: 'Unknown'
    user_email: 'Unknown'
    ip: '216.119.142.90'
    time: '2018-01-11 16:41'
    post: array()
    get: array()
    ---: '---'
[2018-01-11 16:41:22.940581] [info] ----------------------------------------------------------2018-01-11 16:41
    current_url: '//wip.timevn.com/wp-base/wp-cron.php?doing_wp_cron=1515663681.3108520507812500000000'
    user_id: 'Unknown'
    user_username: 'Unknown'
    user_email: 'Unknown'
    ip: '103.28.37.47'
    time: '2018-01-11 16:41'
    post: array()
    get: array(
        'doing_wp_cron' => '1515663681.3108520507812500000000',
    )
    ---: '---'
