[2017-08-17 10:44:31.430104] [info] ----------------------------------------------------------2017-08-17 10:44
    current_url: '//wip.timevn.com/wp-base/wp-cron.php?doing_wp_cron=1502941470.9897840023040771484375'
    user_id: 'Unknown'
    user_username: 'Unknown'
    user_email: 'Unknown'
    ip: '103.28.37.47'
    time: '2017-08-17 10:44'
    post: array()
    get: array(
        'doing_wp_cron' => '1502941470.9897840023040771484375',
    )
    ---: '---'
[2017-08-17 10:44:32.063657] [info] ----------------------------------------------------------2017-08-17 10:44
    current_url: '//wip.timevn.com/wp-base/'
    user_id: 'Unknown'
    user_username: 'Unknown'
    user_email: 'Unknown'
    ip: '101.99.23.83'
    time: '2017-08-17 10:44'
    post: array()
    get: array()
    ---: '---'
