[2017-07-22 11:21:27.652964] [info] ----------------------------------------------------------2017-07-22 11:21
    current_url: '//wip.timevn.com/wp-base/wp-cron.php?doing_wp_cron=1500697287.3129489421844482421875'
    user_id: 'Unknown'
    user_username: 'Unknown'
    user_email: 'Unknown'
    ip: '103.28.37.47'
    time: '2017-07-22 11:21'
    post: array()
    get: array(
        'doing_wp_cron' => '1500697287.3129489421844482421875',
    )
    ---: '---'
[2017-07-22 11:21:28.381215] [info] ----------------------------------------------------------2017-07-22 11:21
    current_url: '//wip.timevn.com/wp-base/'
    user_id: 1
    user_username: 'thanhnq'
    user_email: 'quthanh95@gmail.com'
    ip: '118.70.170.43'
    time: '2017-07-22 11:21'
    post: array()
    get: array()
    ---: '---'
[2017-07-22 11:21:30.947760] [info] ----------------------------------------------------------2017-07-22 11:21
    current_url: '//wip.timevn.com/wp-base/'
    user_id: 1
    user_username: 'thanhnq'
    user_email: 'quthanh95@gmail.com'
    ip: '118.70.170.43'
    time: '2017-07-22 11:21'
    post: array()
    get: array()
    ---: '---'
[2017-07-22 11:21:38.201714] [info] ----------------------------------------------------------2017-07-22 11:21
    current_url: '//wip.timevn.com/wp-base/'
    user_id: 1
    user_username: 'thanhnq'
    user_email: 'quthanh95@gmail.com'
    ip: '118.70.170.43'
    time: '2017-07-22 11:21'
    post: array()
    get: array()
    ---: '---'
[2017-07-22 11:22:04.105938] [info] ----------------------------------------------------------2017-07-22 11:22
    current_url: '//wip.timevn.com/wp-base/'
    user_id: 'Unknown'
    user_username: 'Unknown'
    user_email: 'Unknown'
    ip: '118.70.170.43'
    time: '2017-07-22 11:22'
    post: array()
    get: array()
    ---: '---'
[2017-07-22 11:22:04.332549] [info] ----------------------------------------------------------2017-07-22 11:22
    current_url: '//wip.timevn.com/wp-base/'
    user_id: 'Unknown'
    user_username: 'Unknown'
    user_email: 'Unknown'
    ip: '118.70.170.43'
    time: '2017-07-22 11:22'
    post: array()
    get: array()
    ---: '---'
[2017-07-22 11:23:56.218420] [info] ----------------------------------------------------------2017-07-22 11:23
    current_url: '//wip.timevn.com/wp-base/'
    user_id: 'Unknown'
    user_username: 'Unknown'
    user_email: 'Unknown'
    ip: '23.99.101.118'
    time: '2017-07-22 11:23'
    post: array()
    get: array()
    ---: '---'
[2017-07-22 11:23:57.673320] [info] ----------------------------------------------------------2017-07-22 11:23
    current_url: '//wip.timevn.com/wp-base/'
    user_id: 1
    user_username: 'thanhnq'
    user_email: 'quthanh95@gmail.com'
    ip: '118.70.170.43'
    time: '2017-07-22 11:23'
    post: array()
    get: array()
    ---: '---'
[2017-07-22 11:23:59.102097] [info] ----------------------------------------------------------2017-07-22 11:23
    current_url: '//wip.timevn.com/wp-base/'
    user_id: 1
    user_username: 'thanhnq'
    user_email: 'quthanh95@gmail.com'
    ip: '118.70.170.43'
    time: '2017-07-22 11:23'
    post: array()
    get: array()
    ---: '---'
[2017-07-22 11:25:45.515829] [info] ----------------------------------------------------------2017-07-22 11:25
    current_url: '//wip.timevn.com/wp-base/'
    user_id: 1
    user_username: 'thanhnq'
    user_email: 'quthanh95@gmail.com'
    ip: '118.70.170.43'
    time: '2017-07-22 11:25'
    post: array()
    get: array()
    ---: '---'
[2017-07-22 11:26:16.432833] [info] ----------------------------------------------------------2017-07-22 11:26
    current_url: '//wip.timevn.com/wp-base/'
    user_id: 'Unknown'
    user_username: 'Unknown'
    user_email: 'Unknown'
    ip: '118.70.170.43'
    time: '2017-07-22 11:26'
    post: array()
    get: array()
    ---: '---'
