[2017-08-15 8:30:58.130510] [info] ----------------------------------------------------------2017-08-15 08:30
    current_url: '//wip.timevn.com/wp-base/wp-cron.php?doing_wp_cron=1502760657.7019109725952148437500'
    user_id: 'Unknown'
    user_username: 'Unknown'
    user_email: 'Unknown'
    ip: '103.28.37.47'
    time: '2017-08-15 08:30'
    post: array()
    get: array(
        'doing_wp_cron' => '1502760657.7019109725952148437500',
    )
    ---: '---'
[2017-08-15 8:30:58.731163] [info] ----------------------------------------------------------2017-08-15 08:30
    current_url: '//wip.timevn.com/wp-base/'
    user_id: 'Unknown'
    user_username: 'Unknown'
    user_email: 'Unknown'
    ip: '118.70.170.43'
    time: '2017-08-15 08:30'
    post: array()
    get: array()
    ---: '---'
